…
``` r
all_words_in_variety <- ramen_ratings %>%
  unnest_tokens(word, variety) %>%
  select(word)

words_sorted <- all_words_in_variety %>%
  group_by(word) %>%
  count() %>%
  arrange(desc(n))

words_sorted
```

    ## # A tibble: 1,744 x 2
    ## # Groups:   word [1,744]
    ##    word        n
    ##    <chr>   <int>
    ##  1 noodles   797
    ##  2 noodle    660
    ##  3 instant   511
    ##  4 ramen     492
    ##  5 flavour   459
    ##  6 flavor    407
    ##  7 chicken   378
    ##  8 spicy     351
    ##  9 beef      276
    ## 10 soup      260
    ## # ... with 1,734 more rows
…
