…
``` r
# duplicated(bird_counts$species)

bird_counts %>% 
  group_by(species) %>% 
  filter(n()>1) %>%
  summarise(count=n())
```

    ## # A tibble: 199 x 2
    ##    species                        count
    ##    <chr>                          <int>
    ##  1 American Bittern                  94
    ##  2 American Black Duck               94
    ##  3 American Coot                     94
    ##  4 American Crow                     94
    ##  5 American Goldfinch                94
    ##  6 American Kestrel                  94
    ##  7 American Pipit                    94
    ##  8 American Robin                    94
    ##  9 American Three-toed Woodpecker    94
    ## 10 American Tree Sparrow             94
    ## # ... with 189 more rows

``` r
# duplicated(bird_counts$species)

all_time_counts <- bird_counts %>% 
  group_by(species) %>% 
  summarise(all_years_count=sum(how_many_counted))


all_time_counts
```

    ## # A tibble: 199 x 2
    ##    species                        all_years_count
    ##    <chr>                                    <int>
    ##  1 American Bittern                             2
    ##  2 American Black Duck                      24549
    ##  3 American Coot                             2425
    ##  4 American Crow                           129099
    ##  5 American Goldfinch                       27963
    ##  6 American Kestrel                          1524
    ##  7 American Pipit                              12
    ##  8 American Robin                           16214
    ##  9 American Three-toed Woodpecker               2
    ## 10 American Tree Sparrow                    50600
    ## # ... with 189 more rows
…
